{
	"dev_mode": "1",
	"dynamic_style": "1",
	"compression": "0",
	"multicolumns": "1",
	"multicolumns_order": "1",
	"woo_posts_per_page": "default",
	"totop_scroller": "0",
	"warp_branding": "0",
	"panel_default": {
		"top-a": {
			"panel": "uk-panel uk-panel-box"
		},
		"top-b": {
			"panel": "uk-panel uk-panel-box"
		},
		"bottom-a": {
			"panel": "uk-panel uk-panel-box"
		},
		"bottom-b": {
			"panel": "uk-panel uk-panel-box"
		},
		"main-top": {
			"panel": "uk-panel uk-panel-box"
		},
		"main-bottom": {
			"panel": "uk-panel uk-panel-box"
		},
		"sidebar-a": {
			"panel": "uk-panel uk-panel-box"
		},
		"sidebar-b": {
			"panel": "uk-panel uk-panel-box"
		}
	},
	"tracking_code": "",
	"layouts": {
		"default": {
			"style": "default",
			"sidebars": {
				"sidebar-a": {
					"width": "15",
					"alignment": "right"
				},
				"sidebar-b": {
					"width": "15",
					"alignment": "right"
				}
			},
			"grid": {
				"top-a": {
					"layout": "parallel",
					"responsive": "medium"
				},
				"top-b": {
					"layout": "parallel",
					"responsive": "medium"
				},
				"bottom-a": {
					"layout": "parallel",
					"responsive": "medium"
				},
				"bottom-b": {
					"layout": "parallel",
					"responsive": "medium"
				},
				"main-top": {
					"layout": "parallel",
					"responsive": "medium"
				},
				"main-bottom": {
					"layout": "parallel",
					"responsive": "medium"
				}
			}
		}
	},
	"widgets": {
		"text-8": {
			"assignment": {
				"0": "",
				"1": "*"
			}
		},
		"text-7": {
			"assignment": {
				"0": "",
				"1": "*"
			}
		},
		"text-2": {
			"title": "1",
			"assignment": {
				"0": "",
				"1": "*"
			}
		},
		"nav_menu-2": {
			"title": "1",
			"assignment": {
				"0": "",
				"1": "*"
			}
		},
		"text-3": {
			"title": "1",
			"assignment": {
				"0": "",
				"1": "*"
			},
			"class": "",
			"panel": "",
			"icon": "",
			"badge": {
				"type": "uk-panel-badge uk-badge",
				"text": ""
			},
			"display": {
				"large": "1",
				"medium": "1",
				"small": "1"
			}
		},
		"text-5": {
			"title": "1",
			"assignment": {
				"0": "",
				"1": "*"
			},
			"class": "",
			"panel": "",
			"icon": "",
			"badge": {
				"type": "uk-panel-badge uk-badge",
				"text": ""
			},
			"display": {
				"large": "1",
				"medium": "1",
				"small": "1"
			}
		},
		"text-6": {
			"assignment": {
				"0": "",
				"1": "*"
			}
		},
		"nav_menu-3": {
			"title": "1",
			"assignment": {
				"0": "",
				"1": "front_page"
			}
		}
	},
	"menus": {
		"34": {
			"columns": "1",
			"columnwidth": "",
			"icon": "",
			"subtitle": ""
		},
		"35": {
			"columns": "1",
			"columnwidth": "",
			"icon": "",
			"subtitle": ""
		},
		"40": {
			"columns": "1",
			"columnwidth": "",
			"icon": "",
			"subtitle": ""
		},
		"45": {
			"columns": "1",
			"columnwidth": "",
			"icon": "",
			"subtitle": ""
		},
		"46": {
			"columns": "1",
			"columnwidth": "",
			"icon": "",
			"subtitle": ""
		},
		"47": {
			"columns": "1",
			"columnwidth": "",
			"icon": "",
			"subtitle": ""
		}
	}
}